Node1,Node2,rkm,xkm,bkm/2,P,Q,D,alpha
1,2,0.000298,0.000107107438,0,0.13384,0.10114,0,0
2,3,0.000273,0.00009818181818,0,0.016214,0.011292,0,0
2,4,0.000372,0.0001338842975,0,0.034315,0.021845,0,0
4,5,0.000124,0.0004462809917,0,0.073016,0.063602,0,0
5,6,0.000124,0.0004132231405,0,0.1442,0.068602,0,0
6,7,0.000124,0.0001033057851,0,0.10447,0.061725,0,0
7,8,0.000149,0.0001157024793,0,0.028547,0.011503,0,0
8,9,0.000174,0.000520661157,0,0.08756,0.051073,0,0
2,10,0.001372,0.001110743802,0,0.1982,0.10677,0,0
10,11,0.000926,0.0006520661157,0,0.1468,0.07599,0,0
11,12,0.001545,0.00258677686,0,0.02604,0.018687,0,0
12,13,0.001174,0.001249586777,0,0.0521,0.02322,0,0
13,14,0.001488,0.0009752066116,0,0.1419,0.1175,0,0
14,15,0.001240,0.0003719008264,0,0.02187,0.02879,0,0
15,16,0.001322,0.001487603306,0,0.03337,0.02645,0,0
16,17,0.001298,0.00141322314,0,0.03243,0.02523,0,0
11,18,0.001802,0.002355371901,0,0.020234,0.011906,0,0
18,19,0.000975,0.00152892562,0,0.15694,0.078523,0,0
19,20,0.001322,0.001619834711,0,0.54629,0.3514,0,0
20,21,0.000992,0.001561983471,0,0.1803,0.1642,0,0
21,22,0.000992,0.0006520661157,0,0.093167,0.054594,0,0
22,23,0.011653,0.005975206612,0,0.08518,0.03965,0,0
23,24,0.002421,0.001114049587,0,0.1681,0.095178,0,0
24,25,0.001099,0.0008595041322,0,0.12511,0.10522,0,0
25,26,0.001471,0.001107438017,0,0.01603,0.02462,0,0
26,27,0.001471,0.001107438017,0,0.02603,0.02462,0,0
4,28,0.000124,0.0002446280992,0,0.59456,0.52262,0,0
28,29,0.000099,0.0002280991736,0,0.12062,0.059117,0,0
29,30,0.000992,0.002285950413,0,0.10238,0.099554,0,0
30,31,0.001736,0.002008264463,0,0.5134,0.3185,0,0
31,32,0.000992,0.0004462809917,0,0.47525,0.45614,0,0
32,33,0.001471,0.001933884298,0,0.15143,0.13679,0,0
33,34,0.001471,0.001933884298,0,0.20538,0.083302,0,0
34,35,0.001273,0.001338842975,0,0.1316,0.093082,0,0
30,36,0.001545,0.002157024793,0,0.4484,0.3697,0,0
36,37,0.001102,0.0008181818182,0,0.44052,0.32164,0,0
29,38,0.002727,0.001603305785,0,0.11254,0.055134,0,0
38,39,0.002562,0.001603305785,0,0.053963,0.038998,0,0
39,40,0.001074,0.001603305785,0,0.39305,0.3426,0,0
40,41,0.002314,0.001239669421,0,0.32674,0.27856,0,0
41,42,0.009752,0.007024793388,0,0.53626,0.24024,0,0
42,43,0.003471,0.00201322314,0,0.076247,0.066562,0,0
43,44,0.002231,0.0008033057851,0,0.05352,0.03976,0,0
44,45,0.002802,0.001009090909,0,0.040328,0.031964,0,0
45,46,0.002231,0.001470247934,0,0.039653,0.020758,0,0
35,47,0.001736,0.001142975207,0,0.066195,0.042361,0,0
47,48,0.000992,0.0006520661157,0,0.073904,0.051653,0,0
48,49,0.001240,0.0008157024793,0,0.11477,0.057965,0,0
49,50,0.001240,0.0008157024793,0,0.91837,1.2051,0,0
50,51,0.001983,0.00130661157,0,0.2103,0.14666,0,0
51,52,0.000992,0.0006520661157,0,0.06668,0.056608,0,0
52,53,0.003347,0.001204958678,0,0.042207,0.040184,0,0
53,54,0.003347,0.001204958678,0,0.43374,0.28341,0,0
29,55,0.003231,0.001165289256,0,0.0621,0.02686,0,0
55,56,0.003355,0.001207438017,0,0.09246,0.08838,0,0
56,57,0.003355,0.001207438017,0,0.085188,0.055436,0,0
57,58,0.005835,0.00451322314,0,0.3453,0.3324,0,0
58,59,0.002793,0.00100661157,0,0.0225,0.01683,0,0
59,60,0.002793,0.00100661157,0,0.080551,0.049156,0,0
60,61,0.001711,0.0006173553719,0,0.09586,0.090758,0,0
61,62,0.002041,0.007373553719,0,0.06292,0.0477,0,0
1,63,0.000231,0.0003454545455,0,0.4788,0.46374,0,0
63,64,0.000967,0.001666115702,0,0.12094,0.052006,0,0
64,65,0.001860,0.000758677686,0,0.13911,0.10034,0,0
65,66,0.001736,0.0006272727273,0,0.39178,0.1935,0,0
66,67,0.003165,0.001140495868,0,0.027741,0.026713,0,0
67,68,0.004165,0.002729752066,0,0.052814,0.025257,0,0
68,69,0.003306,0.001207438017,0,0.06689,0.038713,0,0
69,70,0.007950,0.006289256198,0,0.4675,0.39514,0,0
70,71,0.001364,0.0004958677686,0,0.59485,0.23974,0,0
71,72,0.002504,0.0009024793388,0,0.1325,0.084363,0,0
72,73,0.002504,0.0009024793388,0,0.052699,0.022482,0,0
73,74,0.001702,0.001190082645,0,0.86979,0.614775,0,0
74,75,0.001926,0.000694214876,0,0.031349,0.029817,0,0
75,76,0.004884,0.001465289256,0,0.19239,0.12243,0,0
76,77,0.001041,0.0003743801653,0,0.06575,0.04537,0,0
64,78,0.004620,0.003047107438,0,0.23815,0.22322,0,0
78,79,0.001537,0.001014049587,0,0.29455,0.16247,0,0
79,80,0.001537,0.001014049587,0,0.48557,0.43792,0,0
80,81,0.002149,0.001148760331,0,0.24353,0.18303,0,0
81,82,0.001273,0.001223140496,0,0.24353,0.18303,0,0
82,83,0.001901,0.00105785124,0,0.134253,0.11929,0,0
83,84,0.002083,0.0008760330579,0,0.02271,0.02796,0,0
84,85,0.001488,0.001223140496,0,0.049513,0.026515,0,0
79,86,0.001322,0.001504132231,0,0.38378,0.25716,0,0
86,87,0.001653,0.001900826446,0,0.04964,0.0206,0,0
87,88,0.001322,0.003247933884,0,0.022473,0.011806,0,0
65,89,0.005529,0.00199338843,0,0.06293,0.04296,0,0
89,90,0.002198,0.001014049587,0,0.03067,0.03493,0,0
90,91,0.002198,0.001014049587,0,0.06253,0.06679,0,0
91,92,0.002198,0.001014049587,0,0.11457,0.081748,0,0
92,93,0.002198,0.001014049587,0,0.081292,0.066526,0,0
92,94,0.001926,0.0009504132231,0,0.031733,0.01596,0,0
94,95,0.004099,0.001140495868,0,0.03332,0.06048,0,0
91,96,0.001620,0.001487603306,0,0.53128,0.22485,0,0
96,97,0.001620,0.001487603306,0,0.50703,0.36742,0,0
97,98,0.001542,0.001008264463,0,0.02639,0.0117,0,0
98,99,0.000617,0.002628099174,0,0.04599,0.030392,0,0
1,100,0.000517,0.0002190082645,0,0.10066,0.047572,0,0
100,101,0.001240,0.001933884298,0,0.45648,0.3503,0,0
101,102,0.001113,0.0007338842975,0,0.52256,0.44929,0,0
102,103,0.001907,0.000994214876,0,0.40843,0.16846,0,0
103,104,0.003694,0.00132892562,0,0.14148,0.13425,0,0
104,105,0.001349,0.0004859504132,0,0.10443,0.066024,0,0
105,106,0.002727,0.0008181818182,0,0.096793,0.083647,0,0
106,107,0.001289,0.0004636363636,0,0.49392,0.41934,0,0
107,108,0.003156,0.00113553719,0,0.22538,0.13588,0,0
108,109,0.001344,0.0004834710744,0,0.50921,0.38721,0,0
109,110,0.003156,0.00113553719,0,0.1885,0.17346,0,0
110,111,0.002021,0.000726446281,0,0.91803,0.89855,0,0
111,112,0.001726,0.0006223140496,0,0.30508,0.21537,0,0
112,113,0.001902,0.0006842975207,0,0.05438,0.04097,0,0
100,114,0.005043,0.001814876033,0,0.21114,0.1929,0,0
114,115,0.001542,0.001049586777,0,0.067009,0.053336,0,0
115,116,0.003084,0.002033057851,0,0.16207,0.090321,0,0
116,117,0.003347,0.003033057851,0,0.048785,0.029156,0,0
117,118,0.004041,0.003619834711,0,0.0339,0.01898,0,0
