Node1,Node2,rkm,xkm,bkm/2,P,Q,D,alpha
1,2,0.0025,0.0026,0.0001,0,0,0,0
2,3,0.0034,0.0036,0.0001,0,0,0,0
3,4,0.004,0.0023,0,0.085,0.04,0,2
4,5,0.0013,0.0008,0,0,0,0,0
5,6,0.004,0.0023,0,0.085,0.04,0,2
5,7,0.0022,0.0012,0,0,0,0,0
7,8,0.0042,0.0013,0,0.042,0.021,0,0
7,9,0.0022,0.0012,0,0.085,0.04,0,1
9,10,0.0038,0.0021,0,0.042,0.021,0,0
10,11,0.0043,0.0025,0,0.14,0.07,0,1
11,12,0.0027,0.0015,0,0.126,0.062,0,0
12,13,0.0027,0.0015,0,0,0,0,0
13,14,0.0026,0.0008,0,0.085,0.04,0,0
13,15,0.0027,0.0015,0,0.042,0.021,0,1
10,16,0.0068,0.0022,0,0,0,0,0
16,17,0.0167,0.0054,0.0001,0.042,0.021,0,2
16,18,0.0026,0.0008,0,0.085,0.04,0,0
3,19,0.0031,0.001,0,0.042,0.021,0,0
19,20,0.0019,0.0011,0,0.042,0.021,0,0
20,21,0.0026,0.0008,0,0.126,0.063,0,0
20,22,0.0037,0.0012,0,0.042,0.021,0,1
2,23,0.0024,0.0014,0,0.085,0.04,0,0
23,24,0.0035,0.002,0,0,0,0,0
24,25,0.001,0.0003,0,0.038,0.018,0,1
25,26,0.0068,0.0022,0,0.085,0.04,0,2
24,27,0.0054,0.0031,0,0.085,0.04,0,0
27,28,0.004,0.0023,0,0,0,0,0
28,29,0.0037,0.0012,0,0.042,0.021,0,0
27,30,0.012,0.0039,0,0,0,0,0
30,31,0.0016,0.0005,0,0.161,0.08,0,1
30,32,0.0099,0.0032,0,0.042,0.021,0,2
2,33,0.0052,0.0017,0,0,0,0,0
33,34,0.0031,0.001,0,0.085,0.04,0,0
33,35,0.0042,0.0013,0,0.093,0.044,0,2
