Cm,Pdiesel,Ppv,Pst,Pvpp,time,Pvpp_rt,Pst_rt,Pdiesel_rt
97.47,1.25163349389641E-10,0,0,-3.29430449213076E-10,1,0.00999999967057,0,0
96.25,1.2416417188722E-10,0,0.187631032159671,0.187631031795946,2,0.237631031795946,0.187631032159671,0
93.38,1.24139843193063E-10,0,0.00701270272235,0.007012702365919,3,-0.001987297634081,-0.100701270272235,0
90.86,1.2412447960635E-10,0,-0.239810439503493,-0.239810439860353,4,-0.259810439860353,-0.299810439503493,0
93.73,1.24114679553339E-10,0,0.040598518126009,0.040598517768904,5,0.049598517768904,0.210598518126009,0
97.8,1.24091059698017E-10,0,0.189650182100888,0.189650181748583,6,0.174650181748583,0.011896501821009,0
97.99,1.24022884118166E-10,0.404254088978438,-0.109222976296682,0.295031112152625,7,0.286531112152625,0.005068,0
103.55,1.2396101078082E-10,0.562127044489219,-0.332360086687575,0.229766957138808,8,0.244766957138808,0,0.050954991122049
105.79,1.24010970457613E-10,0.669502725985625,0.107015542153369,0.776518267452095,9,0.779518267452094,0,0.044201397036069
108.95,1.23963574645706E-10,0.776878407482031,-0.23033273215316,0.546545674065701,10,0.483545674065701,-0.39033273215316,0
113.45,1.25254404932304E-10,0.89940327118275,0.399999920783129,1.29940319077146,11,1.29190319077146,0.13999920783129,0
112.49,1.22515437638578E-10,1.06425408897844,-0.399999953775506,0.664254132918398,12,0.676254132918398,-0.39999953775506,0
112.6,1.24043272923881E-10,1.05162977047484,-0.082132995029175,0.969496773020141,13,0.92449677302014,-0.282132995029175,0
112.58,1.23969189120244E-10,1.01940327118275,-0.218993920325295,0.800409349493201,14,0.800409349493201,-0.388993920325295,0
112.74,1.23924763157284E-10,0.896878407482031,-0.319054728019582,0.577823678508776,15,0.581623678508776,-0.3905472801958,0
112.36,1.2510103831657E-10,0.789502725985625,4.53555650419198E-08,0.789502770454962,16,0.782602770454962,0,0
109.04,1.25711890252628E-10,0.524254088978438,-2.13031469356411E-08,0.524254067063339,17,0.484254067063339,0,0
129.91,1.26771089918442E-10,0.194552453387063,0.399999652991022,0.594552105937087,18,0.584552105937087,0.12,0
126.08,1.28648114407533E-10,0,0.399999965597442,0.399999965361144,19,0.403899965361144,0.15,0
120.4,1.27933010522933E-10,0,0.399999945432059,0.399999945167641,20,0.408999945167641,0.139999945432059,0
109.52,1.26721899462071E-10,0,0.234043358801816,0.234043358508777,21,0.220443358508777,0.004043358801816,0
105.72,1.26727693610769E-10,0,-0.00069712576466,-0.000697126056311,22,0.0010287394369,-0.2069712576466,0
102.56,1.26711591084665E-10,0,-0.110014759991354,-0.110014760283626,23,-0.12914760283626,-0.310014759991354,0
102.56,1.2670549065398E-10,0,-0.323331127373686,-0.323331127666311,24,-0.333331127666311,-0.423331127373686,0
