Cm,Pdiesel,Ppv,Pst,Pvpp,time
97.47,1.6394167982634368e-10,0.0,0.0,-1.1045734422042002e-09,1
96.25,1.6351760111021098e-10,0.0,0.02499975864621631,0.0249997575482206,2
93.38,1.6317291610238226e-10,0.0,-0.04999980583773988,-0.04999980695377325,3
90.86,1.6232944090666146e-10,0.0,-0.04999994461697029,-0.04999994577966377,4
93.73,1.6312463952219222e-10,0.0,-0.04999983323890087,-0.04999983435777163,5
97.8,1.6373260239332363e-10,0.0,0.04960281370565161,0.04960281261820729,6
97.99,1.6370555314156054e-10,0.12127622669353133,-0.035426747656809414,0.08584947765116607,7
103.55,1.6368913872955604e-10,0.16863811334676562,-0.014176209262710238,0.15446190257210643,8
105.79,1.6522841132184641e-10,0.20085081779568756,0.0066360971695498955,0.20748691344652842,9
108.95,1.6521610654553237e-10,0.23306352224460944,-0.006636058284947062,0.22642746237122638,10
113.45,1.6737363752713673e-10,0.2698209813548251,0.0499999586717063,0.31982093840613657,11
112.49,1.6509312200713885e-10,0.3192762266935313,-0.04999989741724751,0.26927632716694916,12
112.6,1.660123866808519e-10,0.31548893114245324,0.0499947624881055,0.3654836918191427,13
112.58,1.6599411537210734e-10,0.30582098135482505,-0.0026944157335864957,0.30312656375165986,14
112.74,1.659770327520138e-10,0.26906352224460944,-0.04730041176033403,0.22176310878005212,15
112.36,1.6668194021144975e-10,0.23685081779568756,0.04999960884763635,0.2868504251008441,16
109.04,1.6654654767154217e-10,0.15727622669353133,-0.004999640066927547,0.15227658527875426,17
129.91,1.7186798861013442e-10,0.05836573601611879,0.0499999864825093,0.10836572157536646,18
126.08,1.7164207018994492e-10,0.0,0.049999985942626494,0.04999998515454116,19
120.4,1.7005086644148053e-10,0.0,0.04999997972724776,0.04999997889189457,20
109.52,1.6703662091947868e-10,0.0,0.04999985013828516,0.04999984919776939,21
105.72,1.6627982131987313e-10,0.0,-0.0200000465942286,-0.02000004756513129,22
102.56,1.6573430681747318e-10,0.0,-0.04999987558227209,-0.04999987657604229,23
102.56,1.6548227825305225e-10,0.0,-0.04999991576685922,-0.04999991677154022,24
