Cost_da,Cost_rt,Pdiesel_rt,Pmg,Ppv_da,Ppv_rt,Pst,Pvpp_da,Pvpp_rt,error_Pvpp,error_pv,time
111438.9298035744,80534.14807981858,0.0,0.00999999967057,0.0,0.0,0.0,-3.29430449213076e-10,0.00999999967057,0.01000000000000045,0.0,1
99475.71857719797,110358.85655185363,0.0,0.049999999636274994,0.0,0.0,0.18763103215967103,0.18763103179594603,0.23763103179594602,0.04999999999999999,0.0,2
115372.16418421967,118660.35712998717,0.0,0.098713972638154,0.0,0.0,-0.100701270272235,0.007012702365919001,-0.001987297634081,0.009000000000000001,0.0,3
96668.64742121183,81376.63708161519,0.0,0.039999999643139994,0.0,0.0,-0.29981043950349295,-0.239810439860353,-0.25981043986035296,0.019999999999999962,0.0,4
87432.4599929256,81543.43415623848,0.0,-0.16100000035710496,0.0,0.0,0.21059851812600897,0.040598517768904,0.049598517768904005,0.009000000000000008,0.0,5
90865.54997380762,94599.26120421848,0.0,0.162753679927574,0.0,0.0,0.011896501821009,0.18965018174858303,0.17465018174858302,0.015000000000000013,0.0,6
112947.40619660518,120100.03085717,0.0,0.13040303586982302,0.37086441575318696,0.151060076282802,0.005068,0.295031112152625,0.286531112152625,0.008500000000000008,0.21980433947038497,7
105608.67184916744,95498.54368183593,0.050954991122049,0.057639912649590036,0.5411086938013769,0.13617205336716898,0.0,0.229766957138808,0.244766957138808,0.015000000000000013,0.40493664043420796,8
102082.7422489073,101581.71365721461,0.044201397036069,0.2540155414664681,0.747270202980849,0.48130132894955696,0.0,0.776518267452095,0.7795182674520941,0.0029999999999991145,0.26596887403129205,9
111717.3167529724,108956.25890484623,0.0,0.046904805062342014,0.9764595205173568,0.826973601156519,-0.39033273215316,0.546545674065701,0.483545674065701,0.063,0.14948591936083788,10
122606.45587106065,125554.1324101354,0.0,0.22546245452539204,1.049096368218756,0.9264415284147779,0.13999920783129002,1.2994031907714598,1.29190319077146,0.00749999999999984,0.12265483980397807,11
98215.72882415273,107245.73968514189,0.0,-0.10562046453649088,1.2125049906503487,1.1818741352099489,-0.39999953775506,0.664254132918398,0.676254132918398,0.01200000000000001,0.030630855440399785,12
99588.02608997324,123299.4923804559,0.0,-0.11840587068554398,1.014487989769068,1.325035638734859,-0.282132995029175,0.9694967730201409,0.9244967730201401,0.04500000000000082,0.310547648965791,13
115975.40817010506,130488.42359541732,0.0,0.13046898180834088,0.9782394981124829,1.058934288010155,-0.38899392032529495,0.800409349493201,0.800409349493201,0.0,0.0806947898976722,14
122315.42869759351,85882.67118770817,0.0,-0.054744021287608025,0.911450443620546,1.026914979992184,-0.3905472801958,0.577823678508776,0.5816236785087759,0.0037999999999999146,0.115464536371638,15
95386.43981973336,123458.84311484279,0.0,0.04996188610769714,0.8222397080625479,0.7326408843472649,0.0,0.7895027704549621,0.7826027704549621,0.006900000000000017,0.08959882371528294,16
117214.80960963586,112586.85915318762,0.0,0.03418062671788302,0.5221521084224521,0.45007344034545593,0.0,0.524254067063339,0.48425406706333896,0.040000000000000036,0.07207866807699614,17
114982.78555075669,129773.33570332314,0.0,0.11984272375054511,0.2936969327998377,0.34470938218654196,0.12,0.594552105937087,0.5845521059370871,0.009999999999999898,0.05101244938670424,18
125288.23380702529,143754.05661844998,0.0,0.24901164953199406,0.0353461085060217,0.00488831582914986,0.15,0.39999996536114396,0.4038999653611439,0.003899999999999959,0.030457792676871837,19
133511.021553376,129399.29989172096,0.0,0.268999999735582,0.0,0.0,0.139999945432059,0.399999945167641,0.408999945167641,0.009000000000000008,0.0,20
112187.0866895402,111672.14015087644,0.0,0.216399999706961,0.0,0.0,0.004043358801816,0.23404335850877697,0.220443358508777,0.013599999999999973,0.0,21
98105.98257262801,100893.58106346722,0.0,0.2079999970835,0.0,0.0,-0.20697125764660002,-0.0006971260563110001,0.0010287394369,0.001725865493211,0.0,22
110783.75591359033,112937.90953741405,0.0,0.18086715715509402,0.0,0.0,-0.310014759991354,-0.11001476028362599,-0.12914760283626,0.01913284255263402,0.0,23
93833.45806221773,102878.03258807807,0.0,0.08999999970737499,0.0,0.0,-0.42333112737368606,-0.32333112766631106,-0.33333112766631107,0.010000000000000009,0.0,24
