Cost_da,Cost_rt,Pdiesel_rt,Pmg,Ppv_da,Ppv_rt,Pst,Pvpp_da,Pvpp_rt,error_Pvpp,error_pv,time
86070.99574867463,105380.62392863439,0.0,-1.1045734422041998e-09,0.0,0.0,0.0,-1.1045734422041998e-09,-1.1045734422041998e-09,0.0,0.0,1
107157.09069366439,108955.39702447003,0.0,-0.005002183164006,0.0,0.0,0.024999758646216,0.024999757548221,0.01999757548221,0.005002182066011,0.0,2
99300.735284229,99498.08390950186,0.0,0.00699980583774,0.0,0.0,-0.04999980583774,-0.049999806953773,-0.043,0.006999806953773002,0.0,3
83704.24255966936,77852.63120296353,0.0,-0.004000001162694007,0.0,0.0,-0.04999994461697,-0.049999945779664004,-0.05399994577966401,0.0040000000000000036,0.0,4
93218.16747753881,97908.32583248113,0.0,0.004999833238900991,0.0,0.0,-0.05999983323890099,-0.049999834357772006,-0.055,0.005000165642227994,0.0,5
110413.2376855915,95571.91819862694,0.0,0.014699998912555003,0.0,0.0,0.029602813705652,0.049602812618207,0.044302812618207,0.005299999999999999,0.0,6
112681.21904759154,106652.86898865912,0.0,-0.09469337396659959,0.1502605138898502,0.1737538007142564,-6.042674765681e-05,0.085849477651166,0.079,0.006849477651166003,0.023493286824406184,7
91125.76385507047,92424.8498479457,0.0,-0.013805569359697845,0.1784298626557092,0.1774436811945138,-0.01417620926271,0.15446190257210599,0.14946190257210598,0.0050000000000000044,0.00098618146119539,8
107359.32908603028,108362.83933791984,0.0,-0.0304006410554509,0.1988480507220648,0.2447370313384959,0.000663609716955,0.207486913446528,0.215,0.007513086553471993,0.045888980616431096,9
85038.39329203202,106841.15650440154,0.0,-0.015186940379899316,0.2711504554278129,0.23925046103607236,-0.006636058284946999,0.22642746237122602,0.21742746237122604,0.00899999999999998,0.031899994391740544,10
120202.43976804012,116831.585786294,0.0,-0.035337706835999905,0.2567107868922657,0.2943377481642939,0.049999958671705994,0.31982093840613696,0.309,0.01082093840613696,0.03762696127202825,11
95512.61071711316,129235.87461334976,0.042,-0.005302074859083572,0.35914773193524263,0.21622970757577858,0.0,0.269276327166949,0.252927632716695,0.016348694450253998,0.14291802435946405,12
98753.11505320467,104156.31460252953,0.0,-0.02565617755206656,0.32113962904689713,0.38077992174632846,0.00035994762488100003,0.3654836918191429,0.3554836918191429,0.010000000000000009,0.05964029269943133,13
105437.34768792617,114649.50957603572,0.0,0.019830873102934576,0.3306601839717675,0.3245961024090594,-0.04730041176033401,0.30312656375165997,0.29712656375165997,0.006000000000000005,0.006064081562708101,14
117827.95813804571,98278.79434092912,0.0,-0.001073959003340591,0.29090627445648776,0.2660687214914466,-0.039994762488106,0.22176310878005198,0.225,0.0032368912199480238,0.024837552965041143,15
85875.62406420027,103045.24752504408,0.0,0.025480571835106935,0.26344874249399697,0.27251942816489305,-0.009000000000000001,0.28685042510084396,0.289,0.002149574899156015,0.009070685670896084,16
120250.97228397444,107572.67315864329,0.0,-0.002455751833358666,0.19948375153430367,0.15198337436792667,-0.000299964006693,0.15227658527875398,0.149227658527875,0.0030489267508789775,0.047500377166377006,17
142688.94151804087,135070.2916196305,0.0,-0.01743605984493718,0.06444128182909822,0.0758017949377942,0.049999986482509,0.108365721575366,0.108365721575366,0.0,0.011360513108695972,18
128380.07248076795,131567.99933364298,0.0,-0.01063341400386085,0.006789444116704002,0.018633428061233852,0.049999985942626994,0.049999985154540995,0.057999999999999996,0.008000014845459001,0.011843983944529849,19
130236.71982600256,109470.01127925178,0.0,2.027275200489065e-08,0.0,0.0,0.049999979727248,0.049999978891894996,0.05,2.1108105006939493e-08,0.0,20
112561.13326256344,89535.56552673245,0.0,0.006000149861714994,0.0,0.0,0.049999850138285,0.04999984919776901,0.055999999999999994,0.006000150802230986,0.0,21
100981.43131446325,115001.99560212568,0.0,-0.00010000097090200055,0.0,0.0,-0.020000046594229,-0.020000047565131,-0.020100047565131,9.99999999999994e-05,0.0,22
98298.8715219615,127010.50317474385,0.0,-0.00400000099377,0.0,0.0,-0.049999875582272,-0.049999876576042,-0.053999876576042,0.0040000000000000036,0.0,23
111501.31070113703,97498.15611957891,0.0,0.0009999989953190028,0.0,0.0,-0.049999915766859,-0.04999991677154,-0.048999916771539996,0.0010000000000000009,0.0,24
